Gutenberg metadata about each work — gutenberg_metadata • rOpenSci: gutenbergr
…
library(dplyr)

#> 
#> Attaching package: ‘dplyr’
#> The following objects are masked from ‘package:stats’:
#> 
#>     filter, lag
#> The following objects are masked from ‘package:base’:
#> 
#>     intersect, setdiff, setequal, union
library(stringr)

gutenberg_metadata

#> # A tibble: 51,997 x 8
#>    gutenberg_id title  author  gutenberg_autho… language gutenberg_books… rights
#>           <int> <chr>  <chr>              <int> <chr>    <chr>            <chr> 
#>  1            0  NA    NA                    NA en       NA               Publi…
#>  2            1 "The … Jeffer…             1638 en       United States L… Publi…
#>  3            2 "The … United…                1 en       American Revolu… Publi…
#>  4            3 "John… Kenned…             1666 en       NA               Publi…
#>  5            4 "Linc… Lincol…                3 en       US Civil War     Publi…
#>  6            5 "The … United…                1 en       American Revolu… Publi…
#>  7            6 "Give… Henry,…                4 en       American Revolu… Publi…
#>  8            7 "The … NA                    NA en       NA               Publi…
#>  9            8 "Abra… Lincol…                3 en       US Civil War     Publi…
#> 10            9 "Abra… Lincol…                3 en       US Civil War     Publi…
#> # … with 51,987 more rows, and 1 more variable: has_text <lgl>

gutenberg_metadata %>%
  count(author, sort = TRUE)

#> # A tibble: 16,190 x 2
#>    author                                  n
#>    <chr>                               <int>
#>  1 NA                                   3457
#>  2 Various                              3199
#>  3 Anonymous                             724
#>  4 Shakespeare, William                  317
#>  5 Lytton, Edward Bulwer Lytton, Baron   219
#>  6 Twain, Mark                           214
#>  7 Ebers, Georg                          171
#>  8 Dickens, Charles                      163
#>  9 Verne, Jules                          151
#> 10 Unknown                               141
#> # … with 16,180 more rows
…
