Gutenberg metadata about the subject of each work — gutenberg_subjects • rOpenSci: gutenbergr
…
    See also

    gutenberg_metadata, gutenberg_authors

    Examples

library(dplyr)
library(stringr)

gutenberg_subjects %>%
  filter(subject_type == "lcsh") %>%
  count(subject, sort = TRUE)

#> # A tibble: 24,488 x 2
#>    subject                                  n
#>    <chr>                                <int>
#>  1 Fiction                               1801
#>  2 Short stories                         1604
#>  3 Science fiction                       1308
#>  4 Adventure stories                      727
#>  5 Poetry                                 640
#>  6 Love stories                           622
#>  7 Historical fiction                     607
#>  8 Conduct of life -- Juvenile fiction    554
#>  9 English wit and humor -- Periodicals   544
#> 10 Detective and mystery stories          521
#> # … with 24,478 more rows

sherlock_holmes_subjects <- gutenberg_subjects %>%
  filter(str_detect(subject, "Holmes, Sherlock"))

sherlock_holmes_subjects

#> # A tibble: 47 x 3
#>    gutenberg_id subject_type subject                                           
#>           <int> <chr>        <chr>                                             
#>  1          108 lcsh         Holmes, Sherlock (Fictitious character) -- Fiction
#>  2          221 lcsh         Holmes, Sherlock (Fictitious character) -- Fiction
#>  3          244 lcsh         Holmes, Sherlock (Fictitious character) -- Fiction
#>  4          834 lcsh         Holmes, Sherlock (Fictitious character) -- Fiction
#>  5         1661 lcsh         Holmes, Sherlock (Fictitious character) -- Fiction
#>  6         2097 lcsh         Holmes, Sherlock (Fictitious character) -- Fiction
#>  7         2343 lcsh         Holmes, Sherlock (Fictitious character) -- Fiction
#>  8         2344 lcsh         Holmes, Sherlock (Fictitious character) -- Fiction
#>  9         2345 lcsh         Holmes, Sherlock (Fictitious character) -- Fiction
#> 10         2346 lcsh         Holmes, Sherlock (Fictitious character) -- Fiction
#> # … with 37 more rows
…
